<svg width="17" height="18" viewBox="0 0 17 18" fill="none" xmlns="http://www.w3.org/2000/svg">
<path d="M14.9823 2.16431H2.01775C0.905173 2.16431 0 3.08471 0 4.21601V13.784C0 14.9153 0.905173 15.8357 2.01775 15.8357H14.9823C16.0949 15.8357 17 14.9153 17 13.784V4.21601C17 3.08471 16.0949 2.16431 14.9823 2.16431ZM14.9823 14.0244H2.01775C1.85421 14.0244 1.71078 13.9121 1.71078 13.784V5.48123L7.5743 10.7227C7.69451 10.8302 7.84737 10.8894 8.00477 10.8894L8.99505 10.8894C9.15236 10.8894 9.30532 10.8302 9.42557 10.7227L15.2894 5.48104V13.7841C15.2893 13.9121 15.1458 14.0244 14.9823 14.0244ZM8.50002 9.09087L2.79702 3.97563H14.203L8.50002 9.09087Z"/>
</svg>
