<svg viewBox="0 0 20 20" fill="none" xmlns="http://www.w3.org/2000/svg">
<path d="M18.4946 1.05188C17.8177 0.373228 16.9149 0 15.9565 0C14.9981 0 14.0965 0.372617 13.419 1.05066L2.62351 11.7839C2.55937 11.8474 2.5105 11.9238 2.47996 12.008L0.0365689 18.7274C-0.0422304 18.9442 0.00846991 19.1892 0.167901 19.3572C0.285184 19.4805 0.445837 19.5471 0.611377 19.5471C0.67124 19.5471 0.731103 19.5386 0.790355 19.5203L6.86768 17.6559C6.96297 17.6272 7.04971 17.5747 7.12057 17.5045L18.4952 6.12986C19.1744 5.45243 19.5477 4.54959 19.5477 3.59056C19.547 2.63214 19.1744 1.72992 18.4946 1.05188ZM6.16521 16.5937L3.89041 17.2925C3.75785 16.9034 3.55139 16.5589 3.26979 16.2773C3.02484 16.0335 2.74079 15.8442 2.44148 15.6902L3.48236 12.8278H4.88731V14.0495C4.88731 14.3873 5.16036 14.6603 5.49816 14.6603H6.57631L6.16521 16.5937ZM15.1569 7.74005L7.71432 15.1826L7.92811 14.1766C7.96598 13.9957 7.92078 13.8082 7.80472 13.6653C7.68866 13.5217 7.51457 13.4387 7.3307 13.4387H6.10901V12.217C6.10901 11.8798 5.83535 11.6061 5.49816 11.6061H4.53424L11.7991 4.38283L11.8064 4.38955C12.2535 3.9418 12.8491 3.69563 13.4813 3.69563C14.1136 3.69563 14.7097 3.9418 15.1563 4.38955C15.6028 4.8373 15.8514 5.43227 15.8514 6.06511C15.8514 6.69795 15.6052 7.2923 15.1569 7.74005ZM17.6308 5.26612L17.0615 5.83604C17.0065 4.96314 16.6443 4.14949 16.0212 3.52581C15.3976 2.90153 14.5833 2.53991 13.708 2.48554L14.2809 1.91684L14.2822 1.91562C14.7281 1.46787 15.3236 1.2217 15.9565 1.2217C16.5893 1.2217 17.1843 1.46787 17.6308 1.91562C18.0792 2.36337 18.326 2.95834 18.326 3.59056C18.326 4.22401 18.0804 4.81898 17.6308 5.26612ZM13.6182 5.06576L7.50968 11.1742C7.27084 11.4131 7.27084 11.7991 7.50968 12.038C7.62819 12.1571 7.78517 12.217 7.94155 12.217C8.09793 12.217 8.25369 12.1571 8.37342 12.038L14.4819 5.9295C14.7207 5.69066 14.7207 5.3046 14.4819 5.06576C14.2424 4.82692 13.857 4.82692 13.6182 5.06576Z"/>
</svg>
