<svg width="8" height="8" viewBox="0 0 8 8" fill="none" xmlns="http://www.w3.org/2000/svg">
<path d="M4 0C1.79449 0 0 1.79449 0 4C0 6.20551 1.79449 8 4 8C6.20551 8 8 6.20551 8 4C8 1.79449 6.20551 0 4 0ZM6.23559 2.94737L3.6792 5.48371C3.52882 5.63409 3.28822 5.64411 3.12782 5.49373L1.77444 4.26065C1.61404 4.11028 1.60401 3.85965 1.74436 3.69925C1.89474 3.53885 2.14536 3.52882 2.30576 3.6792L3.37845 4.66165L5.66416 2.37594C5.82456 2.21554 6.07519 2.21554 6.23559 2.37594C6.39599 2.53634 6.39599 2.78697 6.23559 2.94737Z" fill="#18C814"/>
</svg>
